[gd_scene load_steps=5 format=3 uid="uid://oae8i85pi4fr"]

[ext_resource type="Script" path="res://Levels/menu.gd" id="1_npexi"]
[ext_resource type="Texture2D" uid="uid://dw6ddvd7viogi" path="res://Assets/ecran titre.png" id="2_g8rsh"]
[ext_resource type="FontFile" uid="uid://dwmgxt17o2guk" path="res://Assets/Font/Cyberwar Reguler.otf" id="3_o661u"]
[ext_resource type="AudioStream" uid="uid://chw28w3fbugbx" path="res://Assets/sons/sons anbiant.wav" id="4_rexy7"]

[node name="Menu" type="Node2D"]
script = ExtResource("1_npexi")

[node name="EcranTitre" type="Sprite2D" parent="."]
position = Vector2(600, 350)
texture = ExtResource("2_g8rsh")

[node name="Polygon2D" type="Polygon2D" parent="."]
modulate = Color(0.686275, 0.729412, 0, 1)
position = Vector2(22, -2)
polygon = PackedVector2Array(331, 203, 769, 203, 769, 505, 325, 505)

[node name="Button_play" type="Button" parent="."]
modulate = Color(0.215686, 0, 0.94902, 1)
offset_left = 449.0
offset_top = 239.0
offset_right = 707.0
offset_bottom = 330.0
theme_override_fonts/font = ExtResource("3_o661u")
theme_override_font_sizes/font_size = 30
text = "PLay"

[node name="Button_quit" type="Button" parent="."]
modulate = Color(0.054902, 0, 1, 1)
self_modulate = Color(0.145098, 0.270588, 0.752941, 1)
offset_left = 449.0
offset_top = 386.0
offset_right = 707.0
offset_bottom = 477.0
theme_override_fonts/font = ExtResource("3_o661u")
theme_override_font_sizes/font_size = 30
text = "Quit"

[node name="AudioStreamPlayer" type="AudioStreamPlayer" parent="."]
stream = ExtResource("4_rexy7")
volume_db = 4.0
autoplay = true

[connection signal="pressed" from="Button_play" to="." method="_on_button_play_pressed"]
[connection signal="pressed" from="Button_quit" to="." method="_on_button_quit_pressed"]
